…
Coerce a data frame to a tibble, now it's pretty!
========================================================
class: small-code


```r
tibble_iris <- tbl_df(iris)
tibble_iris
```

```
# A tibble: 150 × 5
   Sepal.Length Sepal.Width Petal.Length Petal.Width Species
          <dbl>       <dbl>        <dbl>       <dbl>  <fctr>
1           5.1         3.5          1.4         0.2  setosa
2           4.9         3.0          1.4         0.2  setosa
3           4.7         3.2          1.3         0.2  setosa
4           4.6         3.1          1.5         0.2  setosa
5           5.0         3.6          1.4         0.2  setosa
6           5.4         3.9          1.7         0.4  setosa
7           4.6         3.4          1.4         0.3  setosa
8           5.0         3.4          1.5         0.2  setosa
9           4.4         2.9          1.4         0.2  setosa
10          4.9         3.1          1.5         0.1  setosa
# ... with 140 more rows
```
…
<img style="float: right;" src="http://readr.tidyverse.org/logo.png">

- Main functions are `read_*`
  * `csv`, `tsv`, `delim`, `fwf`, etc.
- Faster than `read.*`, but not `data.table::fread`
- Nice column parsers, reads data as a tibble


```r
read_csv("https://query.data.world/s/v8bzksoqgqyinhqd4u6lhruu") # file or URL
```

```
# A tibble: 157,462 × 13
      id episode_id number
   <int>      <int>  <int>
1   9549         32    209
2   9550         32    210
3   9551         32    211
4   9552         32    212
5   9553         32    213
6   9554         32    214
7   9555         32    215
8   9556         32    216
9   9557         32    217
10  9558         32    218
# ... with 157,452 more rows, and 10 more variables: raw_text <chr>,
#   timestamp_in_ms <int>, speaking_line <chr>, character_id <int>,
#   location_id <int>, raw_character_text <chr>, raw_location_text <chr>,
#   spoken_words <chr>, normalized_text <chr>, word_count <chr>
```
…
- `readr` functions can handle gzipped files


```r
sg <- read_tsv("https://ftp.ncbi.nlm.nih.gov/genomes/refseq/bacteria/Streptococcus_gordonii/latest_assembly_versions/GCF_002073435.1_ASM207343v1/GCF_002073435.1_ASM207343v1_genomic.gff.gz",
               comment = "#",
               col_names = c("seqname", "source", "feature", "start", "end", "score", "strand", "frame", "attribute"))
sg
```

```
# A tibble: 4,449 × 9
         seqname           source feature start     end score strand frame
           <chr>            <chr>   <chr> <int>   <int> <chr>  <chr> <chr>
1  NZ_CP020450.1           RefSeq  region     1 2222466     .      +     .
2  NZ_CP020450.1           RefSeq    gene   526    1875     .      +     .
3  NZ_CP020450.1 Protein Homology     CDS   526    1875     .      +     0
4  NZ_CP020450.1           RefSeq    gene  2199    2930     .      -     .
5  NZ_CP020450.1 Protein Homology     CDS  2199    2930     .      -     0
6  NZ_CP020450.1           RefSeq    gene  2948    4089     .      -     .
7  NZ_CP020450.1 Protein Homology     CDS  2948    4089     .      -     0
8  NZ_CP020450.1           RefSeq    gene  4523    5077     .      +     .
9  NZ_CP020450.1 Protein Homology     CDS  4523    5077     .      +     0
10 NZ_CP020450.1           RefSeq    gene  5090    5302     .      -     .
# ... with 4,439 more rows, and 1 more variables: attribute <chr>
```
…
- Work in progress to make it more similar to `readr`
  - Currently can't work on text streams, URLs
<br>
<br>


```r
## Run me!
library(readxl)
eurovision <- read_excel("data/eurovision_song_contest_1975_2016.xlsx")
eurovision
```

```
# A tibble: 38,181 × 7
    year competition_round edition jury_or_televoting from_country
   <dbl>             <chr>   <chr>              <chr>        <chr>
1   1975                 f   1975f                  J      Belgium
2   1975                 f   1975f                  J      Belgium
3   1975                 f   1975f                  J      Belgium
4   1975                 f   1975f                  J      Belgium
5   1975                 f   1975f                  J      Belgium
6   1975                 f   1975f                  J      Belgium
7   1975                 f   1975f                  J      Belgium
8   1975                 f   1975f                  J      Belgium
9   1975                 f   1975f                  J      Belgium
10  1975                 f   1975f                  J      Belgium
# ... with 38,171 more rows, and 2 more variables: to_country <chr>,
#   points <dbl>
```
…
- Goal: read in a CSV of flights to/from New York City in 2013
  - File location: `data/flights.csv`


```r
## Run me!
library(tidyverse)
flights <- read_csv("data/flights.csv")
flights
```

```
# A tibble: 336,776 × 19
    year month   day dep_time sched_dep_time dep_delay arr_time
   <int> <int> <int>    <int>          <int>     <dbl>    <int>
1   2013     1     1      517            515         2      830
2   2013     1     1      533            529         4      850
3   2013     1     1      542            540         2      923
4   2013     1     1      544            545        -1     1004
5   2013     1     1      554            600        -6      812
6   2013     1     1      554            558        -4      740
7   2013     1     1      555            600        -5      913
8   2013     1     1      557            600        -3      709
9   2013     1     1      557            600        -3      838
10  2013     1     1      558            600        -2      753
# ... with 336,766 more rows, and 12 more variables: sched_arr_time <int>,
#   arr_delay <dbl>, carrier <chr>, flight <int>, tailnum <chr>,
#   origin <chr>, dest <chr>, air_time <dbl>, distance <dbl>, hour <dbl>,
#   minute <dbl>, time_hour <dttm>
```
…
CASE STUDY: WHO Global TB Report
========================================================
class: small-code

* Tuberculosis (TB) cases broken down by year, country, age, gender, and diagnosis method


```r
who
```

```
# A tibble: 7,240 × 60
       country  iso2  iso3  year new_sp_m014 new_sp_m1524 new_sp_m2534
         <chr> <chr> <chr> <int>       <int>        <int>        <int>
1  Afghanistan    AF   AFG  1980          NA           NA           NA
2  Afghanistan    AF   AFG  1981          NA           NA           NA
3  Afghanistan    AF   AFG  1982          NA           NA           NA
4  Afghanistan    AF   AFG  1983          NA           NA           NA
5  Afghanistan    AF   AFG  1984          NA           NA           NA
6  Afghanistan    AF   AFG  1985          NA           NA           NA
7  Afghanistan    AF   AFG  1986          NA           NA           NA
8  Afghanistan    AF   AFG  1987          NA           NA           NA
9  Afghanistan    AF   AFG  1988          NA           NA           NA
10 Afghanistan    AF   AFG  1989          NA           NA           NA
# ... with 7,230 more rows, and 53 more variables: new_sp_m3544 <int>,
#   new_sp_m4554 <int>, new_sp_m5564 <int>, new_sp_m65 <int>,
#   new_sp_f014 <int>, new_sp_f1524 <int>, new_sp_f2534 <int>,
#   new_sp_f3544 <int>, new_sp_f4554 <int>, new_sp_f5564 <int>,
#   new_sp_f65 <int>, new_sn_m014 <int>, new_sn_m1524 <int>,
#   new_sn_m2534 <int>, new_sn_m3544 <int>, new_sn_m4554 <int>,
#   new_sn_m5564 <int>, new_sn_m65 <int>, new_sn_f014 <int>,
#   new_sn_f1524 <int>, new_sn_f2534 <int>, new_sn_f3544 <int>,
#   new_sn_f4554 <int>, new_sn_f5564 <int>, new_sn_f65 <int>,
…
CASE STUDY: WHO Global TB Report
========================================================
class: small-code

* Step 1: **Gather** non-variable columns


```r
who
```

```
# A tibble: 7,240 × 60
       country  iso2  iso3  year new_sp_m014 new_sp_m1524 new_sp_m2534
         <chr> <chr> <chr> <int>       <int>        <int>        <int>
1  Afghanistan    AF   AFG  1980          NA           NA           NA
2  Afghanistan    AF   AFG  1981          NA           NA           NA
3  Afghanistan    AF   AFG  1982          NA           NA           NA
4  Afghanistan    AF   AFG  1983          NA           NA           NA
5  Afghanistan    AF   AFG  1984          NA           NA           NA
6  Afghanistan    AF   AFG  1985          NA           NA           NA
7  Afghanistan    AF   AFG  1986          NA           NA           NA
8  Afghanistan    AF   AFG  1987          NA           NA           NA
9  Afghanistan    AF   AFG  1988          NA           NA           NA
10 Afghanistan    AF   AFG  1989          NA           NA           NA
# ... with 7,230 more rows, and 53 more variables: new_sp_m3544 <int>,
#   new_sp_m4554 <int>, new_sp_m5564 <int>, new_sp_m65 <int>,
#   new_sp_f014 <int>, new_sp_f1524 <int>, new_sp_f2534 <int>,
#   new_sp_f3544 <int>, new_sp_f4554 <int>, new_sp_f5564 <int>,
#   new_sp_f65 <int>, new_sn_m014 <int>, new_sn_m1524 <int>,
#   new_sn_m2534 <int>, new_sn_m3544 <int>, new_sn_m4554 <int>,
#   new_sn_m5564 <int>, new_sn_m65 <int>, new_sn_f014 <int>,
#   new_sn_f1524 <int>, new_sn_f2534 <int>, new_sn_f3544 <int>,
#   new_sn_f4554 <int>, new_sn_f5564 <int>, new_sn_f65 <int>,
…
CASE STUDY: WHO Global TB Report
========================================================
class: small-code

* Step 1: **Gather** non-variable columns


```r
who1 <- who %>%
  gather(new_sp_m014:newrel_f65, key = "key", value = "cases", na.rm = T)
who1
```

```
# A tibble: 76,046 × 6
       country  iso2  iso3  year         key cases
*        <chr> <chr> <chr> <int>       <chr> <int>
1  Afghanistan    AF   AFG  1997 new_sp_m014     0
2  Afghanistan    AF   AFG  1998 new_sp_m014    30
3  Afghanistan    AF   AFG  1999 new_sp_m014     8
4  Afghanistan    AF   AFG  2000 new_sp_m014    52
5  Afghanistan    AF   AFG  2001 new_sp_m014   129
6  Afghanistan    AF   AFG  2002 new_sp_m014    90
7  Afghanistan    AF   AFG  2003 new_sp_m014   127
8  Afghanistan    AF   AFG  2004 new_sp_m014   139
9  Afghanistan    AF   AFG  2005 new_sp_m014   151
10 Afghanistan    AF   AFG  2006 new_sp_m014   193
# ... with 76,036 more rows
```
…
* Step 2: Decode the key...


```r
# Quick fix: "new_rel" instead of "newrel" - see `stringr` package for documentation on str_replace
#   And we'll discuss mutate from dplyr in the next section
who2 <- who1 %>% mutate(key = stringr::str_replace(key, "newrel", "new_rel"))
who3 <- who2 %>% separate(key, c("new", "type", "sexage"))
who3
```

```
# A tibble: 76,046 × 8
       country  iso2  iso3  year   new  type sexage cases
*        <chr> <chr> <chr> <int> <chr> <chr>  <chr> <int>
1  Afghanistan    AF   AFG  1997   new    sp   m014     0
2  Afghanistan    AF   AFG  1998   new    sp   m014    30
3  Afghanistan    AF   AFG  1999   new    sp   m014     8
4  Afghanistan    AF   AFG  2000   new    sp   m014    52
5  Afghanistan    AF   AFG  2001   new    sp   m014   129
6  Afghanistan    AF   AFG  2002   new    sp   m014    90
7  Afghanistan    AF   AFG  2003   new    sp   m014   127
8  Afghanistan    AF   AFG  2004   new    sp   m014   139
9  Afghanistan    AF   AFG  2005   new    sp   m014   151
10 Afghanistan    AF   AFG  2006   new    sp   m014   193
# ... with 76,036 more rows
```
…
* Step 2.5: Remove boring columns
  * `new` is uninformative (they're all "new"")
  * `iso2` and `iso3` are redundant


```r
who4 <- who3 %>% select(-new, -iso2, -iso3) # `select` from dplyr, which we'll discuss later
who4
```

```
# A tibble: 76,046 × 5
       country  year  type sexage cases
*        <chr> <int> <chr>  <chr> <int>
1  Afghanistan  1997    sp   m014     0
2  Afghanistan  1998    sp   m014    30
3  Afghanistan  1999    sp   m014     8
4  Afghanistan  2000    sp   m014    52
5  Afghanistan  2001    sp   m014   129
6  Afghanistan  2002    sp   m014    90
7  Afghanistan  2003    sp   m014   127
8  Afghanistan  2004    sp   m014   139
9  Afghanistan  2005    sp   m014   151
10 Afghanistan  2006    sp   m014   193
# ... with 76,036 more rows
```
…
CASE STUDY: WHO Global TB Report
========================================================
class:small-code

### Tidy!


```r
who5
```

```
# A tibble: 76,046 × 6
       country  year  type   sex   age cases
*        <chr> <int> <chr> <chr> <chr> <int>
1  Afghanistan  1997    sp     m   014     0
2  Afghanistan  1998    sp     m   014    30
3  Afghanistan  1999    sp     m   014     8
4  Afghanistan  2000    sp     m   014    52
5  Afghanistan  2001    sp     m   014   129
6  Afghanistan  2002    sp     m   014    90
7  Afghanistan  2003    sp     m   014   127
8  Afghanistan  2004    sp     m   014   139
9  Afghanistan  2005    sp     m   014   151
10 Afghanistan  2006    sp     m   014   193
# ... with 76,036 more rows
```
…
Bonus - tidy it all in one piped operation


```r
tidy_who <- who %>%
  gather(code, value, new_sp_m014:newrel_f65, na.rm = TRUE) %>% 
  mutate(code = stringr::str_replace(code, "newrel", "new_rel")) %>%
  separate(code, c("new", "var", "sexage")) %>% 
  select(-new, -iso2, -iso3) %>% 
  separate(sexage, c("sex", "age"), sep = 1)
tidy_who
```

```
# A tibble: 76,046 × 6
       country  year   var   sex   age value
*        <chr> <int> <chr> <chr> <chr> <int>
1  Afghanistan  1997    sp     m   014     0
2  Afghanistan  1998    sp     m   014    30
3  Afghanistan  1999    sp     m   014     8
4  Afghanistan  2000    sp     m   014    52
5  Afghanistan  2001    sp     m   014   129
6  Afghanistan  2002    sp     m   014    90
7  Afghanistan  2003    sp     m   014   127
8  Afghanistan  2004    sp     m   014   139
9  Afghanistan  2005    sp     m   014   151
10 Afghanistan  2006    sp     m   014   193
# ... with 76,036 more rows
```
…
New York City flights - 2013
========================================================
class:small-code

* From the `nycflights13` package


```r
flights
```

```
# A tibble: 336,776 × 19
    year month   day dep_time sched_dep_time dep_delay arr_time
   <int> <int> <int>    <int>          <int>     <dbl>    <int>
1   2013     1     1      517            515         2      830
2   2013     1     1      533            529         4      850
3   2013     1     1      542            540         2      923
4   2013     1     1      544            545        -1     1004
5   2013     1     1      554            600        -6      812
6   2013     1     1      554            558        -4      740
7   2013     1     1      555            600        -5      913
8   2013     1     1      557            600        -3      709
9   2013     1     1      557            600        -3      838
10  2013     1     1      558            600        -2      753
# ... with 336,766 more rows, and 12 more variables: sched_arr_time <int>,
#   arr_delay <dbl>, carrier <chr>, flight <int>, tailnum <chr>,
#   origin <chr>, dest <chr>, air_time <dbl>, distance <dbl>, hour <dbl>,
#   minute <dbl>, time_hour <dttm>
```

filter - pick observations based on values
========================================================
class:small-code

* Columns are referred to in expressions that filter rows out of the data frame
  * Separate arguments to `filter` are combined like `&`


```r
flights %>% filter(month == 5, day == 11)
```

```
# A tibble: 738 × 19
    year month   day dep_time sched_dep_time dep_delay arr_time
   <int> <int> <int>    <int>          <int>     <dbl>    <int>
1   2013     5    11        2           2159       123      151
2   2013     5    11        9           2359        10      342
3   2013     5    11       20           2359        21      353
4   2013     5    11       23           2245        98      126
5   2013     5    11       26           1940       286      203
6   2013     5    11       30           2359        31      359
7   2013     5    11       33           1930       303      227
8   2013     5    11      455            500        -5      630
9   2013     5    11      514            515        -1      810
10  2013     5    11      536            540        -4      855
# ... with 728 more rows, and 12 more variables: sched_arr_time <int>,
#   arr_delay <dbl>, carrier <chr>, flight <int>, tailnum <chr>,
#   origin <chr>, dest <chr>, air_time <dbl>, distance <dbl>, hour <dbl>,
#   minute <dbl>, time_hour <dttm>
```
…
* Anything that evaluates to a boolean value can be used in a `filter` statement


```r
flights %>%
  filter(sched_dep_time < 1200,
         origin %in% c("JFK", "EWR"),
         !is.na(dep_time))
```

```
# A tibble: 85,532 × 19
    year month   day dep_time sched_dep_time dep_delay arr_time
   <int> <int> <int>    <int>          <int>     <dbl>    <int>
1   2013     1     1      517            515         2      830
2   2013     1     1      542            540         2      923
3   2013     1     1      544            545        -1     1004
4   2013     1     1      554            558        -4      740
5   2013     1     1      555            600        -5      913
6   2013     1     1      557            600        -3      838
7   2013     1     1      558            600        -2      849
8   2013     1     1      558            600        -2      853
9   2013     1     1      558            600        -2      924
10  2013     1     1      558            600        -2      923
# ... with 85,522 more rows, and 12 more variables: sched_arr_time <int>,
#   arr_delay <dbl>, carrier <chr>, flight <int>, tailnum <chr>,
#   origin <chr>, dest <chr>, air_time <dbl>, distance <dbl>, hour <dbl>,
#   minute <dbl>, time_hour <dttm>
```
filter - pick observations based on values
========================================================
class:small-code

* Boolean combinations can be used too


```r
flights %>%
  filter((air_time < 120 & dep_delay > 30) |
           (air_time >= 120 & dep_delay > 60))
```

```
# A tibble: 36,583 × 19
    year month   day dep_time sched_dep_time dep_delay arr_time
   <int> <int> <int>    <int>          <int>     <dbl>    <int>
1   2013     1     1      811            630       101     1047
2   2013     1     1      826            715        71     1136
3   2013     1     1      848           1835       853     1001
4   2013     1     1      957            733       144     1056
5   2013     1     1     1114            900       134     1447
6   2013     1     1     1120            944        96     1331
7   2013     1     1     1301           1150        71     1518
8   2013     1     1     1304           1227        37     1518
9   2013     1     1     1337           1220        77     1649
10  2013     1     1     1355           1315        40     1538
# ... with 36,573 more rows, and 12 more variables: sched_arr_time <int>,
#   arr_delay <dbl>, carrier <chr>, flight <int>, tailnum <chr>,
#   origin <chr>, dest <chr>, air_time <dbl>, distance <dbl>, hour <dbl>,
#   minute <dbl>, time_hour <dttm>
```
…
arrange - sort rows by values
========================================================
class:small-code

* Sort by values in specified columns
  * Leftmost column is the primary sorting key, subsequent columns break ties


```r
flights %>% arrange(year, month, day)
```

```
# A tibble: 336,776 × 19
    year month   day dep_time sched_dep_time dep_delay arr_time
   <int> <int> <int>    <int>          <int>     <dbl>    <int>
1   2013     1     1      517            515         2      830
2   2013     1     1      533            529         4      850
3   2013     1     1      542            540         2      923
4   2013     1     1      544            545        -1     1004
5   2013     1     1      554            600        -6      812
6   2013     1     1      554            558        -4      740
7   2013     1     1      555            600        -5      913
8   2013     1     1      557            600        -3      709
9   2013     1     1      557            600        -3      838
10  2013     1     1      558            600        -2      753
# ... with 336,766 more rows, and 12 more variables: sched_arr_time <int>,
#   arr_delay <dbl>, carrier <chr>, flight <int>, tailnum <chr>,
#   origin <chr>, dest <chr>, air_time <dbl>, distance <dbl>, hour <dbl>,
#   minute <dbl>, time_hour <dttm>
```
…
