…
ggplot2 vs. base R graphics
========================================================
class: small-code
* Base R graphics are easy for simple graphs
  + You just have to know the plotting function you want

```r
# Run this code!
library(tidyverse)
housing <- read_csv("data/landdata-states.csv")
housing
```

```
# A tibble: 7,803 × 11
   State region    Date Home.Value Structure.Cost Land.Value
   <chr>  <chr>   <dbl>      <int>          <int>      <int>
1     AK   West 2010.25     224952         160599      64352
2     AK   West 2010.50     225511         160252      65259
3     AK   West 2009.75     225820         163791      62029
4     AK   West 2010.00     224994         161787      63207
5     AK   West 2008.00     234590         155400      79190
6     AK   West 2008.25     233714         157458      76256
7     AK   West 2008.50     232999         160092      72906
8     AK   West 2008.75     232164         162704      69460
9     AK   West 2009.00     231039         164739      66299
10    AK   West 2009.25     229395         165424      63971
# ... with 7,793 more rows, and 5 more variables: Land.Share..Pct. <dbl>,
#   Home.Price.Index <dbl>, Land.Price.Index <dbl>, Year <int>, Qrtr <int>
```
…
* Back out from nested columns with...wait for it...`unnest`


```r
mtcars %>% nest(-cyl) %>%
  mutate(mpg_rf = map(data, function(d) randomForest(mpg ~ ., data = d)),
         mpg_preds = map2(data, mpg_rf, add_predictions)) %>%
  unnest(mpg_preds)
```

```
# A tibble: 32 × 12
     cyl   mpg  disp    hp  drat    wt  qsec    vs    am  gear  carb
   <dbl> <dbl> <dbl> <dbl> <dbl> <dbl> <dbl> <dbl> <dbl> <dbl> <dbl>
1      6  21.0 160.0   110  3.90 2.620 16.46     0     1     4     4
2      6  21.0 160.0   110  3.90 2.875 17.02     0     1     4     4
3      6  21.4 258.0   110  3.08 3.215 19.44     1     0     3     1
4      6  18.1 225.0   105  2.76 3.460 20.22     1     0     3     1
5      6  19.2 167.6   123  3.92 3.440 18.30     1     0     4     4
6      6  17.8 167.6   123  3.92 3.440 18.90     1     0     4     4
7      6  19.7 145.0   175  3.62 2.770 15.50     0     1     5     6
8      4  22.8 108.0    93  3.85 2.320 18.61     1     1     4     1
9      4  24.4 146.7    62  3.69 3.190 20.00     1     0     4     2
10     4  22.8 140.8    95  3.92 3.150 22.90     1     0     4     2
# ... with 22 more rows, and 1 more variables: pred <dbl>
```
…
